Gold_Trash/RV32i/dump.vcd
$date
	Sat May 09 22:22:30 2026
$end
$version
	Icarus Verilog
$end
$timescale
	1ps
$end
$scope module testbench $end
$var wire 32 ! WriteData [31:0] $end
$var wire 1 " MemWrite $end
$var wire 32 # DataAdr [31:0] $end
$var reg 1 $ clk $end
$var reg 1 % reset $end
$scope module dut $end
$var wire 1 $ clk $end
$var wire 1 % reset $end
$var wire 32 & WriteData [31:0] $end
$var wire 32 ' ReadData [31:0] $end
$var wire 32 ( PC [31:0] $end
$var wire 1 " MemWrite $end
$var wire 32 ) Instr [31:0] $end
$var wire 32 * DataAdr [31:0] $end
$scope module dmem $end
$var wire 1 $ clk $end
$var wire 32 + rd [31:0] $end
$var wire 1 " we $end
$var wire 32 , wd [31:0] $end
$var wire 32 - a [31:0] $end
$var integer 32 . i [31:0] $end
$upscope $end
$scope module imem $end
$var wire 32 / rd [31:0] $end
$var wire 32 0 a [31:0] $end
$upscope $end
$scope module rvsingle $end
$var wire 32 1 Instr [31:0] $end
$var wire 32 2 ReadData [31:0] $end
$var wire 1 $ clk $end
$var wire 1 % reset $end
$var wire 1 3 Zero $end
$var wire 32 4 WriteData [31:0] $end
$var wire 2 5 ResultSrc [1:0] $end
$var wire 1 6 RegWrite $end
$var wire 1 7 PCSrc $end
$var wire 32 8 PC [31:0] $end
$var wire 1 " MemWrite $end
$var wire 1 9 Jump $end
$var wire 2 : ImmSrc [1:0] $end
$var wire 1 ; ALUSrc $end
$var wire 32 < ALUResult [31:0] $end
$var wire 3 = ALUControl [2:0] $end
$scope module c $end
$var wire 1 7 PCSrc $end
$var wire 3 > funct3 [14:12] $end
$var wire 1 ? funct7b5 $end
$var wire 7 @ op [6:0] $end
$var wire 1 3 Zero $end
$var wire 2 A ResultSrc [1:0] $end
$var wire 1 6 RegWrite $end
$var wire 1 " MemWrite $end
$var wire 1 9 Jump $end
$var wire 2 B ImmSrc [1:0] $end
$var wire 1 C Branch $end
$var wire 1 ; ALUSrc $end
$var wire 2 D ALUOp [1:0] $end
$var wire 3 E ALUControl [2:0] $end
$scope module ad $end
$var wire 1 F RtypeSub $end
$var wire 3 G funct3 [2:0] $end
$var wire 1 ? funct7b5 $end
$var wire 1 H opb5 $end
$var wire 2 I ALU0p [1:0] $end
$var reg 3 J ALUControl [2:0] $end
$upscope $end
$scope module md $end
$var wire 7 K op [6:0] $end
$var wire 1 9 jump $end
$var wire 2 L ResultSrc [1:0] $end
$var wire 1 6 RegWrite $end
$var wire 1 " MemWrite $end
$var wire 2 M ImmSrc [1:0] $end
$var wire 1 C Branch $end
$var wire 1 ; ALUSrc $end
$var wire 2 N ALU0p [1:0] $end
$var reg 11 O controls [10:0] $end
$upscope $end
$upscope $end
$scope module dp $end
$var wire 3 P ALUControl [2:0] $end
$var wire 1 ; ALUSrc $end
$var wire 2 Q ImmSrc [1:0] $end
$var wire 32 R Instr [31:0] $end
$var wire 1 7 PCSrc $end
$var wire 32 S ReadData [31:0] $end
$var wire 1 6 RegWrite $end
$var wire 2 T ResultSrc [1:0] $end
$var wire 1 $ clk $end
$var wire 1 % reset $end
$var wire 1 3 Zero $end
$var wire 32 U WriteData [31:0] $end
$var wire 32 V SrcB [31:0] $end
$var wire 32 W SrcA [31:0] $end
$var wire 32 X Result [31:0] $end
$var wire 32 Y PCtarget [31:0] $end
$var wire 32 Z PCplus4 [31:0] $end
$var wire 32 [ PCNext [31:0] $end
$var wire 32 \ PC [31:0] $end
$var wire 32 ] ImmExt [31:0] $end
$var wire 32 ^ ALUResult [31:0] $end
$scope module alu $end
$var wire 3 _ ALUControl [2:0] $end
$var wire 1 3 Zero $end
$var wire 32 ` SrcB [31:0] $end
$var wire 32 a SrcA [31:0] $end
$var reg 32 b ALUResult [31:0] $end
$scope begin alu_logic $end
$upscope $end
$upscope $end
$scope module ext $end
$var wire 2 c ImmSrc [1:0] $end
$var wire 25 d instr [31:7] $end
$var wire 1 e sign $end
$var wire 32 f immS [31:0] $end
$var wire 32 g immJ [31:0] $end
$var wire 32 h immI [31:0] $end
$var wire 32 i immB [31:0] $end
$var reg 32 j ImmExt [31:0] $end
$upscope $end
$scope module pcadd4 $end
$var wire 32 k b [31:0] $end
$var wire 32 l y [31:0] $end
$var wire 32 m a [31:0] $end
$upscope $end
$scope module pcaddbranch $end
$var wire 32 n b [31:0] $end
$var wire 32 o y [31:0] $end
$var wire 32 p a [31:0] $end
$upscope $end
$scope module pcmux $end
$var wire 32 q d0 [31:0] $end
$var wire 32 r d1 [31:0] $end
$var wire 1 7 s $end
$var wire 32 s y [31:0] $end
$upscope $end
$scope module pcreg $end
$var wire 1 $ clk $end
$var wire 32 t d [31:0] $end
$var wire 1 % reset $end
$var reg 32 u q [31:0] $end
$upscope $end
$scope module resultmux $end
$var wire 32 v d0 [31:0] $end
$var wire 32 w d1 [31:0] $end
$var wire 32 x d2 [31:0] $end
$var wire 2 y s [1:0] $end
$var wire 32 z y [31:0] $end
$upscope $end
$scope module rf $end
$var wire 5 { a1 [4:0] $end
$var wire 5 | a2 [4:0] $end
$var wire 5 } a3 [4:0] $end
$var wire 1 $ clk $end
$var wire 32 ~ wd3 [31:0] $end
$var wire 1 6 we $end
$var wire 32 !" rd2 [31:0] $end
$var wire 32 "" rd1 [31:0] $end
$scope begin $ivl_foreach0 $end
$var integer 32 #" i [31:0] $end
$upscope $end
$upscope $end
$scope module srcbmux $end
$var wire 32 $" d0 [31:0] $end
$var wire 32 %" d1 [31:0] $end
$var wire 1 ; s $end
$var wire 32 &" y [31:0] $end
$upscope $end
$upscope $end
$upscope $end
$upscope $end
$upscope $end
$enddefinitions $end
#0
$dumpvars
b101 &"
b101 %"
b0 $"
b100000 #"
b0 ""
b0 !"
b101 ~
b10 }
b101 |
b0 {
b101 z
b0 y
b100 x
b0 w
b101 v
b0 u
b100 t
b100 s
b101 r
b100 q
b0 p
b101 o
b101 n
b0 m
b100 l
b100 k
b101 j
b10 i
b101 h
b100000000100 g
b10 f
0e
b1010000000000010 d
b0 c
b101 b
b0 a
b101 `
b0 _
b101 ^
b101 ]
b0 \
b100 [
b100 Z
b101 Y
b101 X
b0 W
b101 V
b0 U
b0 T
b0 S
b10100000000000100010011 R
b0 Q
b0 P
b10010000100 O
b10 N
b0 M
b0 L
b10011 K
b0 J
b10 I
0H
b0 G
0F
b0 E
b10 D
0C
b0 B
b0 A
b10011 @
0?
b0 >
b0 =
b101 <
1;
b0 :
09
b0 8
07
16
b0 5
b0 4
03
b0 2
b10100000000000100010011 1
b0 0
b10100000000000100010011 /
b1000000 .
b101 -
b0 ,
b0 +
b101 *
b10100000000000100010011 )
b0 (
b0 '
b0 &
1%
1$
b101 #
0"
b0 !
$end
#20000
0$
#40000
1$
#50000
0%
#60000
0$
#80000
b1100 X
b1100 z
b1100 ~
b1100 #
b1100 *
b1100 -
b1100 <
b1100 ^
b1100 b
b1100 v
b1100 V
b1100 `
b1100 &"
b1100 ]
b1100 j
b1100 n
b1100 %"
b1100 h
b11 f
b100000000010 i
b1100 g
b1100 |
b11 }
b11000000000000011 d
b1000 [
b1000 s
b1000 t
b110000000000000110010011 )
b110000000000000110010011 /
b110000000000000110010011 1
b110000000000000110010011 R
b10000 Y
b10000 o
b10000 r
b1000 Z
b1000 l
b1000 q
b1000 x
b100 (
b100 0
b100 8
b100 \
b100 m
b100 p
b100 u
1$
#100000
0$
#120000
b11 X
b11 z
b11 ~
b11111111111111111111111111110111 V
b11111111111111111111111111110111 `
b11111111111111111111111111110111 &"
b11 #
b11 *
b11 -
b11 <
b11 ^
b11 b
b11 v
b11111111111111111111111111110111 ]
b11111111111111111111111111110111 j
b11111111111111111111111111110111 n
b11111111111111111111111111110111 %"
b1100 W
b1100 a
b1100 ""
1e
b11111111111111111111111111110111 h
b11111111111111111111111111100111 f
b11111111111111111111111111100110 i
b11111111111100011000111111110110 g
1?
b11 {
b10111 |
b111 }
b1111111101110001100000111 d
b1100 [
b1100 s
b1100 t
b11111111011100011000001110010011 )
b11111111011100011000001110010011 /
b11111111011100011000001110010011 1
b11111111011100011000001110010011 R
b11111111111111111111111111111111 Y
b11111111111111111111111111111111 o
b11111111111111111111111111111111 r
b1100 Z
b1100 l
b1100 q
b1100 x
b1000 (
b1000 0
b1000 8
b1000 \
b1000 m
b1000 p
b1000 u
1$
#140000
0$
#160000
b111 X
b111 z
b111 ~
b0 '
b0 +
b0 2
b0 S
b0 w
b101 V
b101 `
b101 &"
0;
b111 #
b111 *
b111 -
b111 <
b111 ^
b111 b
b111 v
b10 ]
b10 j
b10 n
b10 %"
1H
b10000000100 O
b11 =
b11 E
b11 J
b11 P
b11 _
b11 W
b11 a
b11 ""
b101 !
b101 &
b101 ,
b101 4
b101 U
b101 !"
b101 $"
0e
b10 h
b100 f
b100 i
b111110000000000010 g
b110011 @
b110011 K
b110 >
b110 G
0?
b111 {
b10 |
b100 }
b100011111000100 d
b10000 [
b10000 s
b10000 t
b1000111110001000110011 )
b1000111110001000110011 /
b1000111110001000110011 1
b1000111110001000110011 R
b1110 Y
b1110 o
b1110 r
b10000 Z
b10000 l
b10000 q
b10000 x
b1100 (
b1100 0
b1100 8
b1100 \
b1100 m
b1100 p
b1100 u
1$
#180000
0$
#200000
b100 X
b100 z
b100 ~
b100 #
b100 *
b100 -
b100 <
b100 ^
b100 b
b100 v
b111 V
b111 `
b111 &"
b100 ]
b100 j
b100 n
b100 %"
b10 =
b10 E
b10 J
b10 P
b10 _
b1100 W
b1100 a
b1100 ""
b111 !
b111 &
b111 ,
b111 4
b111 U
b111 !"
b111 $"
b100 h
b101 f
b100000000100 i
b11111000000000100 g
b111 >
b111 G
b11 {
b100 |
b101 }
b1000001111100101 d
b10100 [
b10100 s
b10100 t
b10000011111001010110011 )
b10000011111001010110011 /
b10000011111001010110011 1
b10000011111001010110011 R
b10100 Y
b10100 o
b10100 r
b10100 Z
b10100 l
b10100 q
b10100 x
b10000 (
b10000 0
b10000 8
b10000 \
b10000 m
b10000 p
b10000 u
1$
#220000
0$
#240000
b1011 X
b1011 z
b1011 ~
b1011 #
b1011 *
b1011 -
b1011 <
b1011 ^
b1011 b
b1011 v
b0 =
b0 E
b0 J
b0 P
b0 _
b100 W
b100 a
b100 ""
b101000000000000100 g
b0 >
b0 G
b101 {
b1000010100000101 d
b11000 [
b11000 s
b11000 t
b10000101000001010110011 )
b10000101000001010110011 /
b10000101000001010110011 1
b10000101000001010110011 R
b11000 Y
b11000 o
b11000 r
b11000 Z
b11000 l
b11000 q
b11000 x
b10100 (
b10100 0
b10100 8
b10100 \
b10100 m
b10100 p
b10100 u
1$
#260000
0$
#280000
b1000 X
b1000 z
b1000 ~
b11 V
b11 `
b11 &"
b1 =
b1 E
b1 J
b1 P
b1 _
b110000 ]
b110000 j
b110000 n
b110000 %"
06
b10 :
b10 B
b10 M
b10 Q
b10 c
1C
b1 D
b1 I
b1 N
b11 !
b11 &
b11 ,
b11 4
b11 U
b11 !"
b11 $"
b100111 h
b110000 f
b110000 i
b101000100000100110 g
b1000001010 O
b1000 #
b1000 *
b1000 -
b1000 <
b1000 ^
b1000 b
b1000 v
b1100011 @
b1100011 K
b111 |
b10000 }
b1001110010100010000 d
b1011 W
b1011 a
b1011 ""
b11100 [
b11100 s
b11100 t
b10011100101000100001100011 )
b10011100101000100001100011 /
b10011100101000100001100011 1
b10011100101000100001100011 R
b1001000 Y
b1001000 o
b1001000 r
b11100 Z
b11100 l
b11100 q
b11100 x
b11000 (
b11000 0
b11000 8
b11000 \
b11000 m
b11000 p
b11000 u
1$
#300000
0$
#320000
b0 X
b0 z
b0 ~
13
b101 =
b101 E
b101 J
b101 P
b101 _
16
b0 :
b0 B
b0 M
b0 Q
b0 c
0C
b10 D
b10 I
b10 N
b0 #
b0 *
b0 -
b0 <
b0 ^
b0 b
b0 v
b111 V
b111 `
b111 &"
b100 ]
b100 j
b100 n
b100 %"
b10000000100 O
b1100 W
b1100 a
b1100 ""
b111 !
b111 &
b111 ,
b111 4
b111 U
b111 !"
b111 $"
b100 h
b100 f
b100 i
b11010000000000100 g
b110011 @
b110011 K
b10 >
b10 G
b11 {
b100 |
b100 }
b1000001101000100 d
b100000 [
b100000 s
b100000 t
b10000011010001000110011 )
b10000011010001000110011 /
b10000011010001000110011 1
b10000011010001000110011 R
b100000 Y
b100000 o
b100000 r
b100000 Z
b100000 l
b100000 q
b100000 x
b11100 (
b11100 0
b11100 8
b11100 \
b11100 m
b11100 p
b11100 u
1$
#340000
0$
#360000
17
06
b10 :
b10 B
b10 M
b10 Q
b10 c
1C
b1 D
b1 I
b1 N
b1000 ]
b1000 j
b1000 n
b1000 %"
b1000001010 O
b1 =
b1 E
b1 J
b1 P
b1 _
b0 W
b0 a
b0 ""
b0 h
b1000 f
b1000 i
b100000000000000000 g
b0 V
b0 `
b0 &"
b1100011 @
b1100011 K
b0 >
b0 G
b100 {
b0 |
b1000 }
b10000001000 d
b0 !
b0 &
b0 ,
b0 4
b0 U
b0 !"
b0 $"
b101000 [
b101000 s
b101000 t
b100000010001100011 )
b100000010001100011 /
b100000010001100011 1
b100000010001100011 R
b101000 Y
b101000 o
b101000 r
b100100 Z
b100100 l
b100100 q
b100100 x
b100000 (
b100000 0
b100000 8
b100000 \
b100000 m
b100000 p
b100000 u
1$
#380000
0$
#400000
07
b1 X
b1 z
b1 ~
b0 '
b0 +
b0 2
b0 S
b0 w
b101 =
b101 E
b101 J
b101 P
b101 _
16
b0 :
b0 B
b0 M
b0 Q
b0 c
0C
b10 D
b10 I
b10 N
03
b1 #
b1 *
b1 -
b1 <
b1 ^
b1 b
b1 v
b101 V
b101 `
b101 &"
b10 ]
b10 j
b10 n
b10 %"
b10000000100 O
b11 W
b11 a
b11 ""
b101 !
b101 &
b101 ,
b101 4
b101 U
b101 !"
b101 $"
b10 h
b100 f
b100 i
b111010000000000010 g
b110011 @
b110011 K
b10 >
b10 G
b111 {
b10 |
b100 }
b100011101000100 d
b101100 [
b101100 s
b101100 t
b1000111010001000110011 )
b1000111010001000110011 /
b1000111010001000110011 1
b1000111010001000110011 R
b101010 Y
b101010 o
b101010 r
b101100 Z
b101100 l
b101100 q
b101100 x
b101000 (
b101000 0
b101000 8
b101000 \
b101000 m
b101000 p
b101000 u
1$
#420000
0$
#440000
b1100 X
b1100 z
b1100 ~
b1100 #
b1100 *
b1100 -
b1100 <
b1100 ^
b1100 b
b1100 v
b1011 V
b1011 `
b1011 &"
b101 ]
b101 j
b101 n
b101 %"
b0 =
b0 E
b0 J
b0 P
b0 _
b1 W
b1 a
b1 ""
b1011 !
b1011 &
b1011 ,
b1011 4
b1011 U
b1011 !"
b1011 $"
b101 h
b111 f
b100000000110 i
b100000100000000100 g
b0 >
b0 G
b100 {
b101 |
b111 }
b1010010000000111 d
b110000 [
b110000 s
b110000 t
b10100100000001110110011 )
b10100100000001110110011 /
b10100100000001110110011 1
b10100100000001110110011 R
b110001 Y
b110001 o
b110001 r
b110000 Z
b110000 l
b110000 q
b110000 x
b101100 (
b101100 0
b101100 8
b101100 \
b101100 m
b101100 p
b101100 u
1$
#460000
0$
#480000
b111 X
b111 z
b111 ~
b111 #
b111 *
b111 -
b111 <
b111 ^
b111 b
b111 v
b101 V
b101 `
b101 &"
b1 =
b1 E
b1 J
b1 P
b1 _
b10000000010 ]
b10000000010 j
b10000000010 n
b10000000010 %"
1F
b1100 W
b1100 a
b1100 ""
b101 !
b101 &
b101 ,
b101 4
b101 U
b101 !"
b101 $"
b10000000010 h
b10000000111 f
b110000000110 i
b111000010000000010 g
1?
b111 {
b10 |
b100000000100011100000111 d
b110100 [
b110100 s
b110100 t
b1000000001000111000001110110011 )
b1000000001000111000001110110011 /
b1000000001000111000001110110011 1
b1000000001000111000001110110011 R
b10000110010 Y
b10000110010 o
b10000110010 r
b110100 Z
b110100 l
b110100 q
b110100 x
b110000 (
b110000 0
b110000 8
b110000 \
b110000 m
b110000 p
b110000 u
1$
#500000
0$
#520000
b1100000 X
b1100000 z
b1100000 ~
b1010100 V
b1010100 `
b1010100 &"
06
b1 :
b1 B
b1 M
b1 Q
b1 c
1;
1"
b0 D
b0 I
b0 N
b1010100 ]
b1010100 j
b1010100 n
b1010100 %"
03
0F
b111 !
b111 &
b111 ,
b111 4
b111 U
b111 !"
b111 $"
b1000111 h
b1010100 f
b1010100 i
b11010100001000110 g
b111000000 O
b0 =
b0 E
b0 J
b0 P
b0 _
b1100000 #
b1100000 *
b1100000 -
b1100000 <
b1100000 ^
b1100000 b
b1100000 v
b100011 @
b100011 K
b10 >
b10 G
0?
b11 {
b111 |
b10100 }
b10001110001101010100 d
b1100 W
b1100 a
b1100 ""
b111000 [
b111000 s
b111000 t
b100011100011010101000100011 )
b100011100011010101000100011 /
b100011100011010101000100011 1
b100011100011010101000100011 R
b10001000 Y
b10001000 o
b10001000 r
b111000 Z
b111000 l
b111000 q
b111000 x
b110100 (
b110100 0
b110100 8
b110100 \
b110100 m
b110100 p
b110100 u
1$
#540000
0$
#560000
b111 X
b111 z
b111 ~
b1100000 V
b1100000 `
b1100000 &"
16
b0 :
b0 B
b0 M
b0 Q
b0 c
0"
b1 5
b1 A
b1 L
b1 T
b1 y
b1100000 #
b1100000 *
b1100000 -
b1100000 <
b1100000 ^
b1100000 b
b1100000 v
b1100000 ]
b1100000 j
b1100000 n
b1100000 %"
0H
b10010010000 O
b0 W
b0 a
b0 ""
b0 !
b0 &
b0 ,
b0 4
b0 U
b0 !"
b0 $"
b1100000 h
b1100010 f
b1100010 i
b10000001100000 g
b11 @
b11 K
b0 {
b0 |
b10 }
b11000000000001000010 d
b111100 [
b111100 s
b111100 t
b110000000000010000100000011 )
b110000000000010000100000011 /
b110000000000010000100000011 1
b110000000000010000100000011 R
b111 '
b111 +
b111 2
b111 S
b111 w
b10011000 Y
b10011000 o
b10011000 r
b111100 Z
b111100 l
b111100 q
b111100 x
b111000 (
b111000 0
b111000 8
b111000 \
b111000 m
b111000 p
b111000 u
1$
#580000
0$
#600000
b10010 X
b10010 z
b10010 ~
b0 '
b0 +
b0 2
b0 S
b0 w
b1011 V
b1011 `
b1011 &"
0;
b0 5
b0 A
b0 L
b0 T
b0 y
b10 D
b10 I
b10 N
b10010 #
b10010 *
b10010 -
b10010 <
b10010 ^
b10010 b
b10010 v
b101 ]
b101 j
b101 n
b101 %"
1H
b10000000100 O
b111 W
b111 a
b111 ""
b1011 !
b1011 &
b1011 ,
b1011 4
b1011 U
b1011 !"
b1011 $"
b101 h
b1001 f
b100000001000 i
b10000100000000100 g
b110011 @
b110011 K
b0 >
b0 G
b10 {
b101 |
b1001 }
b1010001000001001 d
b1000000 [
b1000000 s
b1000000 t
b10100010000010010110011 )
b10100010000010010110011 /
b10100010000010010110011 1
b10100010000010010110011 R
b1000001 Y
b1000001 o
b1000001 r
b1000000 Z
b1000000 l
b1000000 q
b1000000 x
b111100 (
b111100 0
b111100 8
b111100 \
b111100 m
b111100 p
b111100 u
1$
#620000
0$
#640000
b1000100 X
b1000100 z
b1000100 ~
17
b11 :
b11 B
b11 M
b11 Q
b11 c
b10 5
b10 A
b10 L
b10 T
b10 y
b0 D
b0 I
b0 N
19
13
b0 #
b0 *
b0 -
b0 <
b0 ^
b0 b
b0 v
b0 V
b0 `
b0 &"
b1000 ]
b1000 j
b1000 n
b1000 %"
b11100100001 O
b0 W
b0 a
b0 ""
b0 !
b0 &
b0 ,
b0 4
b0 U
b0 !"
b0 $"
b1000 h
b11 f
b100000000010 i
b1000 g
b1101111 @
b1101111 K
b0 {
b1000 |
b11 }
b10000000000000011 d
b1001000 [
b1001000 s
b1001000 t
b100000000000000111101111 )
b100000000000000111101111 /
b100000000000000111101111 1
b100000000000000111101111 R
b1001000 Y
b1001000 o
b1001000 r
b1000100 Z
b1000100 l
b1000100 q
b1000100 x
b1000000 (
b1000000 0
b1000000 8
b1000000 \
b1000000 m
b1000000 p
b1000000 u
1$
#660000
0$
#680000
07
b0 :
b0 B
b0 M
b0 Q
b0 c
b0 5
b0 A
b0 L
b0 T
b0 y
b10 D
b10 I
b10 N
09
03
b11001 #
b11001 *
b11001 -
b11001 <
b11001 ^
b11001 b
b11001 v
b10010 V
b10010 `
b10010 &"
b1001 ]
b1001 j
b1001 n
b1001 %"
b10000000100 O
b111 W
b111 a
b111 ""
b10010 !
b10010 &
b10010 ,
b10010 4
b10010 U
b10010 !"
b10010 $"
b1001 h
b10 f
b10 i
b10000100000001000 g
b110011 @
b110011 K
b10 {
b1001 |
b10 }
b10010001000000010 d
b1001100 [
b1001100 s
b1001100 t
b11001 X
b11001 z
b11001 ~
b100100010000000100110011 )
b100100010000000100110011 /
b100100010000000100110011 1
b100100010000000100110011 R
b1010001 Y
b1010001 o
b1010001 r
b1001100 Z
b1001100 l
b1001100 q
b1001100 x
b1001000 (
b1001000 0
b1001000 8
b1001000 \
b1001000 m
b1001000 p
b1001000 u
1$
#700000
0$
#720000
b1100100 X
b1100100 z
b1100100 ~
b100000 V
b100000 `
b100000 &"
06
b1 :
b1 B
b1 M
b1 Q
b1 c
1;
1"
b0 D
b0 I
b0 N
b100000 ]
b100000 j
b100000 n
b100000 %"
03
b11001 !
b11001 &
b11001 ,
b11001 4
b11001 U
b11001 !"
b11001 $"
b100010 h
b100000 f
b100000 i
b11010000000100010 g
b111000000 O
b0 =
b0 E
b0 J
b0 P
b0 _
b1100100 #
b1100100 *
b1100100 -
b1100100 <
b1100100 ^
b1100100 b
b1100100 v
b100011 @
b100011 K
b10 >
b10 G
b11 {
b10 |
b0 }
b1000100001101000000 d
b1000100 W
b1000100 a
b1000100 ""
b1010000 [
b1010000 s
b1010000 t
b10001000011010000000100011 )
b10001000011010000000100011 /
b10001000011010000000100011 1
b10001000011010000000100011 R
b1101100 Y
b1101100 o
b1101100 r
b1010000 Z
b1010000 l
b1010000 q
b1010000 x
b1001100 (
b1001100 0
b1001100 8
b1001100 \
b1001100 m
b1001100 p
b1001100 u
1$
