Testbench/Maintest/dump.vcd
$version Generated by VerilatedVcd $end
$timescale 1ps $end
 $scope module $rootio $end
  $var wire 1 " clk $end
  $var wire 1 # reset $end
 $upscope $end
 $scope module Top $end
  $var wire 1 $ clk $end
  $var wire 1 % reset $end
  $var wire 1 & memWrite $end
  $var wire 32 ' mem_addr [31:0] $end
  $var wire 32 ( mem_wdata [31:0] $end
  $var wire 4 ) mem_wmask [3:0] $end
  $var wire 32 * mem_rdata [31:0] $end
  $scope module cpu $end
   $var wire 1 + clk $end
   $var wire 1 , reset $end
   $var wire 1 - memWrite $end
   $var wire 32 . mem_rdata [31:0] $end
   $var wire 32 / mem_addr [31:0] $end
   $var wire 32 0 mem_wdata [31:0] $end
   $var wire 4 1 mem_wmask [3:0] $end
   $var wire 1 2 zero $end
   $var wire 32 3 instruction [31:0] $end
   $var wire 1 4 PCwrite $end
   $var wire 1 5 IRwrite $end
   $var wire 1 6 RegWrite $end
   $var wire 1 7 AdrSrc $end
   $var wire 2 8 ResultSrc [1:0] $end
   $var wire 2 9 SALUsrcA [1:0] $end
   $var wire 2 : SALUsrcB [1:0] $end
   $var wire 3 ; ImmSrc [2:0] $end
   $var wire 4 < ALUControl [3:0] $end
   $scope module controller $end
    $var wire 1 = reset $end
    $var wire 1 > clk $end
    $var wire 1 ? zero $end
    $var wire 32 @ instruction [31:0] $end
    $var wire 1 A PCwrite $end
    $var wire 1 B MemWrite $end
    $var wire 1 C IRwrite $end
    $var wire 1 D RegWrite $end
    $var wire 1 E AdrSrc $end
    $var wire 2 F ResultSrc [1:0] $end
    $var wire 2 G SALUSrcA [1:0] $end
    $var wire 2 H SALUSrcB [1:0] $end
    $var wire 3 I ImmSrc [2:0] $end
    $var wire 4 J ALUControl [3:0] $end
    $var wire 2 K ALUop [1:0] $end
    $var wire 1 L branch $end
    $scope module aluC_Generator $end
     $var wire 32 M instruction [31:0] $end
     $var wire 2 N ALUOp [1:0] $end
     $var wire 4 O ALUControl [3:0] $end
    $upscope $end
    $scope module decoder $end
     $var wire 32 P instruction [31:0] $end
     $var wire 3 Q ExtOp [2:0] $end
    $upscope $end
    $scope module fsm_inst $end
     $var wire 1 R PCWrite $end
     $var wire 1 S MemWrite $end
     $var wire 1 T IRWrite $end
     $var wire 1 U RegWrite $end
     $var wire 1 V AdrSrc $end
     $var wire 2 W ResultSrc [1:0] $end
     $var wire 2 X SALUSrcA [1:0] $end
     $var wire 2 Y SALUSrcB [1:0] $end
     $var wire 2 Z ALUCop [1:0] $end
     $var wire 1 [ branch $end
     $var wire 1 \ clock $end
     $var wire 1 ] reset $end
     $var wire 1 ^ zero $end
     $var wire 32 _ instruction [31:0] $end
     $var wire 4 (" FETCH [3:0] $end
     $var wire 4 )" DECODE [3:0] $end
     $var wire 4 *" MEM_ADR [3:0] $end
     $var wire 4 +" MEM_READ [3:0] $end
     $var wire 4 ," MEM_WRITEBACK [3:0] $end
     $var wire 4 -" MEM_WRITE [3:0] $end
     $var wire 4 ." EXECUTE_R [3:0] $end
     $var wire 4 /" ALU_WRITEBACK [3:0] $end
     $var wire 4 0" EXECUTE_I [3:0] $end
     $var wire 4 1" JAL [3:0] $end
     $var wire 4 2" BEQ [3:0] $end
     $var wire 4 3" INIT [3:0] $end
     $var wire 4 4" IDLE [3:0] $end
     $var wire 4 ` state [3:0] $end
     $var wire 4 a next_state [3:0] $end
    $upscope $end
   $upscope $end
   $scope module datapath $end
    $var wire 1 b clock $end
    $var wire 1 c reset $end
    $var wire 1 d PCWrite $end
    $var wire 1 e AdrSrc $end
    $var wire 1 f MemWrite $end
    $var wire 1 g IRWrite $end
    $var wire 1 h RegWrite $end
    $var wire 2 i ResultSrc [1:0] $end
    $var wire 4 j ALUControl [3:0] $end
    $var wire 2 k SALUsrcA [1:0] $end
    $var wire 2 l SALUsrcB [1:0] $end
    $var wire 3 m ImmSrc [2:0] $end
    $var wire 32 n Instruction [31:0] $end
    $var wire 1 o Zero $end
    $var wire 32 p MemAddr [31:0] $end
    $var wire 32 q MemWriteData [31:0] $end
    $var wire 4 r MemWriteMask [3:0] $end
    $var wire 32 s MemReadData [31:0] $end
    $var wire 32 t ALUResult [31:0] $end
    $var wire 32 u Result_From_ResultSrc [31:0] $end
    $var wire 32 v oldPC [31:0] $end
    $var wire 32 w PC [31:0] $end
    $var wire 32 x mdr_data [31:0] $end
    $var wire 32 y rd1 [31:0] $end
    $var wire 32 z rd2 [31:0] $end
    $var wire 32 { imm [31:0] $end
    $var wire 32 | ALUSrcA [31:0] $end
    $var wire 32 } ALUSrcB [31:0] $end
    $scope module alu $end
     $var wire 4 ~ ALUControl [3:0] $end
     $var wire 32 !! A [31:0] $end
     $var wire 32 "! B [31:0] $end
     $var wire 32 #! ALUResult [31:0] $end
     $var wire 1 $! Zero $end
    $upscope $end
    $scope module extender $end
     $var wire 32 %! imm [31:0] $end
     $var wire 3 &! ExtOp [2:0] $end
     $var wire 32 '! extImm [31:0] $end
    $upscope $end
    $scope module ir $end
     $var wire 1 (! reset $end
     $var wire 1 )! clock $end
     $var wire 1 *! IRWrite $end
     $var wire 32 +! instruction [31:0] $end
     $var wire 32 ,! PC [31:0] $end
     $var wire 32 -! oldPC [31:0] $end
     $var wire 32 .! o_instruction [31:0] $end
    $upscope $end
    $scope module mdr $end
     $var wire 1 /! reset $end
     $var wire 1 0! clock $end
     $var wire 3 1! Which_load_comment [2:0] $end
     $var wire 2 2! What_HW_or_B [1:0] $end
     $var wire 32 3! Data [31:0] $end
     $var wire 32 4! o_Data [31:0] $end
     $var wire 32 5! i_Data [31:0] $end
    $upscope $end
    $scope module regFile $end
     $var wire 1 6! clock $end
     $var wire 1 7! reset $end
     $var wire 5 8! rs1_addr [4:0] $end
     $var wire 5 9! rs2_addr [4:0] $end
     $var wire 5 :! rd_addr [4:0] $end
     $var wire 32 ;! writeData [31:0] $end
     $var wire 1 <! RegWrite $end
     $var wire 32 =! rs1_data [31:0] $end
     $var wire 32 >! rs2_data [31:0] $end
     $var wire 32 ?! regFile[31] [31:0] $end
     $var wire 32 @! regFile[30] [31:0] $end
     $var wire 32 A! regFile[29] [31:0] $end
     $var wire 32 B! regFile[28] [31:0] $end
     $var wire 32 C! regFile[27] [31:0] $end
     $var wire 32 D! regFile[26] [31:0] $end
     $var wire 32 E! regFile[25] [31:0] $end
     $var wire 32 F! regFile[24] [31:0] $end
     $var wire 32 G! regFile[23] [31:0] $end
     $var wire 32 H! regFile[22] [31:0] $end
     $var wire 32 I! regFile[21] [31:0] $end
     $var wire 32 J! regFile[20] [31:0] $end
     $var wire 32 K! regFile[19] [31:0] $end
     $var wire 32 L! regFile[18] [31:0] $end
     $var wire 32 M! regFile[17] [31:0] $end
     $var wire 32 N! regFile[16] [31:0] $end
     $var wire 32 O! regFile[15] [31:0] $end
     $var wire 32 P! regFile[14] [31:0] $end
     $var wire 32 Q! regFile[13] [31:0] $end
     $var wire 32 R! regFile[12] [31:0] $end
     $var wire 32 S! regFile[11] [31:0] $end
     $var wire 32 T! regFile[10] [31:0] $end
     $var wire 32 U! regFile[9] [31:0] $end
     $var wire 32 V! regFile[8] [31:0] $end
     $var wire 32 W! regFile[7] [31:0] $end
     $var wire 32 X! regFile[6] [31:0] $end
     $var wire 32 Y! regFile[5] [31:0] $end
     $var wire 32 Z! regFile[4] [31:0] $end
     $var wire 32 [! regFile[3] [31:0] $end
     $var wire 32 \! regFile[2] [31:0] $end
     $var wire 32 ]! regFile[1] [31:0] $end
     $var wire 32 ^! regFile[0] [31:0] $end
    $upscope $end
    $scope module sResultSrc $end
     $var wire 1 _! clock $end
     $var wire 1 `! reset $end
     $var wire 2 a! resultSrc [1:0] $end
     $var wire 32 b! ALUresult [31:0] $end
     $var wire 32 c! MemData [31:0] $end
     $var wire 32 d! Result [31:0] $end
     $var wire 32 e! ALUout [31:0] $end
    $upscope $end
    $scope module sdataSrc $end
     $var wire 1 f! clock $end
     $var wire 1 g! reset $end
     $var wire 32 h! newPC [31:0] $end
     $var wire 32 i! oldPC [31:0] $end
     $var wire 32 j! rs1 [31:0] $end
     $var wire 32 k! rs2 [31:0] $end
     $var wire 32 l! imm [31:0] $end
     $var wire 2 m! SdataSrcA [1:0] $end
     $var wire 2 n! SdataSrcB [1:0] $end
     $var wire 32 o! ALUsrcA [31:0] $end
     $var wire 32 p! ALUsrcB [31:0] $end
     $var wire 32 q! Data1 [31:0] $end
     $var wire 32 r! writeData [31:0] $end
    $upscope $end
    $scope module spcSrc $end
     $var wire 1 s! clk $end
     $var wire 1 t! reset $end
     $var wire 1 u! PCWrite $end
     $var wire 32 v! newPC [31:0] $end
     $var wire 32 w! Result_From_ResultSrc [31:0] $end
     $var wire 1 x! Select $end
     $var wire 32 y! PC [31:0] $end
     $var wire 32 z! MemAddr [31:0] $end
    $upscope $end
    $scope module store $end
     $var wire 32 {! writeData [31:0] $end
     $var wire 3 |! WhichStore [2:0] $end
     $var wire 2 }! which_half_or_byte [1:0] $end
     $var wire 32 ~! storeData [31:0] $end
     $var wire 4 !" storeMask [3:0] $end
    $upscope $end
   $upscope $end
  $upscope $end
  $scope module memory $end
   $var wire 1 "" clk $end
   $var wire 1 #" memWrite $end
   $var wire 32 $" mem_addr [31:0] $end
   $var wire 32 %" mem_wdata [31:0] $end
   $var wire 4 &" mem_wmask [3:0] $end
   $var wire 32 '" mem_rdata [31:0] $end
  $upscope $end
 $upscope $end
$enddefinitions $end


#0
1"
1#
1$
1%
0&
b00000000000000000000000000000000 '
b00000000000000000000000000000000 (
b0001 )
b00000000010100000000000100010011 *
1+
1,
0-
b00000000010100000000000100010011 .
b00000000000000000000000000000000 /
b00000000000000000000000000000000 0
b0001 1
12
b00000000000000000000000000000000 3
04
05
06
07
b00 8
b00 9
b00 :
b111 ;
b0000 <
1=
1>
1?
b00000000000000000000000000000000 @
0A
0B
0C
0D
0E
b00 F
b00 G
b00 H
b111 I
b0000 J
b00 K
0L
b00000000000000000000000000000000 M
b00 N
b0000 O
b00000000000000000000000000000000 P
b111 Q
0R
0S
0T
0U
0V
b00 W
b00 X
b00 Y
b00 Z
0[
1\
1]
1^
b00000000000000000000000000000000 _
b1110 `
b0000 a
1b
1c
0d
0e
0f
0g
0h
b00 i
b0000 j
b00 k
b00 l
b111 m
b00000000000000000000000000000000 n
1o
b00000000000000000000000000000000 p
b00000000000000000000000000000000 q
b0001 r
b00000000010100000000000100010011 s
b00000000000000000000000000000000 t
b00000000000000000000000000000000 u
b00000000000000000000000000000000 v
b00000000000000000000000000000000 w
b00000000000000000000000000000000 x
b00000000000000000000000000000000 y
b00000000000000000000000000000000 z
b00000000000000000000000000000000 {
b00000000000000000000000000000000 |
b00000000000000000000000000000000 }
b0000 ~
b00000000000000000000000000000000 !!
b00000000000000000000000000000000 "!
b00000000000000000000000000000000 #!
1$!
b00000000000000000000000000000000 %!
b111 &!
b00000000000000000000000000000000 '!
1(!
1)!
0*!
b00000000010100000000000100010011 +!
b00000000000000000000000000000000 ,!
b00000000000000000000000000000000 -!
b00000000000000000000000000000000 .!
1/!
10!
b000 1!
b00 2!
b00000000010100000000000100010011 3!
b00000000000000000000000000000000 4!
b00000000000000000000000000000000 5!
16!
17!
b00000 8!
b00000 9!
b00000 :!
b00000000000000000000000000000000 ;!
0<!
b00000000000000000000000000000000 =!
b00000000000000000000000000000000 >!
b00000000000000000000000000000000 ?!
b00000000000000000000000000000000 @!
b00000000000000000000000000000000 A!
b00000000000000000000000000000000 B!
b00000000000000000000000000000000 C!
b00000000000000000000000000000000 D!
b00000000000000000000000000000000 E!
b00000000000000000000000000000000 F!
b00000000000000000000000000000000 G!
b00000000000000000000000000000000 H!
b00000000000000000000000000000000 I!
b00000000000000000000000000000000 J!
b00000000000000000000000000000000 K!
b00000000000000000000000000000000 L!
b00000000000000000000000000000000 M!
b00000000000000000000000000000000 N!
b00000000000000000000000000000000 O!
b00000000000000000000000000000000 P!
b00000000000000000000000000000000 Q!
b00000000000000000000000000000000 R!
b00000000000000000000000000000000 S!
b00000000000000000000000000000000 T!
b00000000000000000000000000000000 U!
b00000000000000000000000000000000 V!
b00000000000000000000000000000000 W!
b00000000000000000000000000000000 X!
b00000000000000000000000000000000 Y!
b00000000000000000000000000000000 Z!
b00000000000000000000000000000000 [!
b00000000000000000000000000000000 \!
b00000000000000000000000000000000 ]!
b00000000000000000000000000000000 ^!
1_!
1`!
b00 a!
b00000000000000000000000000000000 b!
b00000000000000000000000000000000 c!
b00000000000000000000000000000000 d!
b00000000000000000000000000000000 e!
1f!
1g!
b00000000000000000000000000000000 h!
b00000000000000000000000000000000 i!
b00000000000000000000000000000000 j!
b00000000000000000000000000000000 k!
b00000000000000000000000000000000 l!
b00 m!
b00 n!
b00000000000000000000000000000000 o!
b00000000000000000000000000000000 p!
b00000000000000000000000000000000 q!
b00000000000000000000000000000000 r!
1s!
1t!
0u!
b00000000000000000000000000000000 v!
b00000000000000000000000000000000 w!
0x!
b00000000000000000000000000000000 y!
b00000000000000000000000000000000 z!
b00000000000000000000000000000000 {!
b000 |!
b00 }!
b00000000000000000000000000000000 ~!
b0001 !"
1""
0#"
b00000000000000000000000000000000 $"
b00000000000000000000000000000000 %"
b0001 &"
b00000000010100000000000100010011 '"
b0000 ("
b0001 )"
b0010 *"
b0011 +"
b0100 ,"
b0101 -"
b0110 ."
b0111 /"
b1000 0"
b1001 1"
b1010 2"
b1110 3"
b1111 4"
#10000
0"
0$
0+
0>
0\
0b
0)!
00!
06!
0_!
0f!
0s!
0""
#20000
1"
1$
1+
1>
1\
1b
1)!
10!
16!
1_!
1f!
1s!
1""
#30000
0"
0$
0+
0>
0\
0b
0)!
00!
06!
0_!
0f!
0s!
0""
#40000
1"
0#
1$
0%
1+
0,
02
14
15
b10 8
b10 :
0=
1>
0?
1A
1C
b10 F
b10 H
1R
1T
b10 W
b10 Y
1\
0]
0^
b0000 `
b0001 a
1b
0c
1d
1g
b10 i
b10 l
0o
b00000000000000000000000000000100 t
b00000000000000000000000000000100 u
b00000000000000000000000000010011 x
b00000000000000000000000000000100 }
b00000000000000000000000000000100 "!
b00000000000000000000000000000100 #!
0$!
0(!
1)!
1*!
0/!
10!
b00000000000000000000000000010011 4!
b00000000010100000000000100010011 5!
16!
07!
b00000000000000000000000000000100 ;!
1_!
0`!
b10 a!
b00000000000000000000000000000100 b!
b00000000000000000000000000010011 c!
b00000000000000000000000000000100 d!
1f!
0g!
b10 n!
b00000000000000000000000000000100 p!
1s!
0t!
1u!
b00000000000000000000000000000100 v!
b00000000000000000000000000000100 w!
1""
#50000
0"
0$
0+
0>
0\
0b
0)!
00!
06!
0_!
0f!
0s!
0""
#60000
1"
1$
b00000000000000000000000000000100 '
b1000 )
b00000000110000000000000110010011 *
1+
b00000000110000000000000110010011 .
b00000000000000000000000000000100 /
b1000 1
b00000000010100000000000100010011 3
04
05
b00 8
b01 9
b01 :
b000 ;
1>
b00000000010100000000000100010011 @
0A
0C
b00 F
b01 G
b01 H
b000 I
b00000000010100000000000100010011 M
b00000000010100000000000100010011 P
b000 Q
0R
0T
b00 W
b01 X
b01 Y
1\
b00000000010100000000000100010011 _
b0001 `
b1000 a
1b
0d
0g
b00 i
b01 k
b01 l
b000 m
b00000000010100000000000100010011 n
b00000000000000000000000000000100 p
b1000 r
b00000000110000000000000110010011 s
b00000000000000000000000000000101 t
b00000000000000000000000000000100 w
b00000000000000000000000000000000 x
b00000000000000000000000000000101 {
b00000000000000000000000000000101 }
b00000000000000000000000000000101 "!
b00000000000000000000000000000101 #!
b00000000010100000000000100010011 %!
b000 &!
b00000000000000000000000000000101 '!
1)!
0*!
b00000000110000000000000110010011 +!
b00000000000000000000000000000100 ,!
b00000000010100000000000100010011 .!
10!
b11 2!
b00000000110000000000000110010011 3!
b00000000000000000000000000000000 4!
16!
b00101 9!
b00010 :!
1_!
b00 a!
b00000000000000000000000000000101 b!
b00000000000000000000000000000000 c!
b00000000000000000000000000000100 e!
1f!
b00000000000000000000000000000100 h!
b00000000000000000000000000000101 l!
b01 m!
b01 n!
b00000000000000000000000000000101 p!
1s!
0u!
b00000000000000000000000000000100 y!
b00000000000000000000000000000100 z!
b11 }!
b1000 !"
1""
b00000000000000000000000000000100 $"
b1000 &"
b00000000110000000000000110010011 '"
#70000
0"
0$
0+
0>
0\
0b
0)!
00!
06!
0_!
0f!
0s!
0""
#80000
1"
1$
1+
b10 9
1>
b10 G
b10 K
b10 N
b10 X
b10 Z
1\
b1000 `
b0111 a
1b
b10 k
b00000000000000000000000000000101 u
1)!
10!
b00000000110000000000000110010011 5!
16!
b00000000000000000000000000000101 ;!
1_!
b00000000000000000000000000000101 d!
b00000000000000000000000000000101 e!
1f!
b10 m!
1s!
b00000000000000000000000000000101 v!
b00000000000000000000000000000101 w!
1""
#90000
0"
0$
0+
0>
0\
0b
0)!
00!
06!
0_!
0f!
0s!
0""
#100000
1"
1$
1+
16
b10 8
b00 9
b00 :
1>
1D
b10 F
b00 G
b00 H
b00 K
b00 N
1U
b10 W
b00 X
b00 Y
b00 Z
1\
b0111 `
b0000 a
1b
1h
b10 i
b00 k
b00 l
b00000000000000000000000000000100 t
b00000000000000000000000000000100 u
b00000000000000000000000000000100 |
b00000000000000000000000000000000 }
b00000000000000000000000000000100 !!
b00000000000000000000000000000000 "!
b00000000000000000000000000000100 #!
1)!
10!
16!
b00000000000000000000000000000100 ;!
1<!
1_!
b10 a!
b00000000000000000000000000000100 b!
b00000000000000000000000000000100 d!
1f!
b00 m!
b00 n!
b00000000000000000000000000000100 o!
b00000000000000000000000000000000 p!
1s!
b00000000000000000000000000000100 v!
b00000000000000000000000000000100 w!
1""
#110000
0"
0$
0+
0>
0\
0b
0)!
00!
06!
0_!
0f!
0s!
0""
#120000
1"
1$
1+
14
15
06
b10 :
1>
1A
1C
0D
b10 H
1R
1T
0U
b10 Y
1\
b0000 `
b0001 a
1b
1d
1g
0h
b10 l
b00000000000000000000000000001000 t
b00000000000000000000000000001000 u
b00000000000000000000000000000100 }
b00000000000000000000000000000100 "!
b00000000000000000000000000001000 #!
1)!
1*!
10!
16!
b00000000000000000000000000001000 ;!
0<!
b00000000000000000000000000000100 \!
1_!
b00000000000000000000000000001000 b!
b00000000000000000000000000001000 d!
b00000000000000000000000000000100 e!
1f!
b10 n!
b00000000000000000000000000000100 p!
1s!
1u!
b00000000000000000000000000001000 v!
b00000000000000000000000000001000 w!
1""
#130000
0"
0$
0+
0>
0\
0b
0)!
00!
06!
0_!
0f!
0s!
0""
#140000
1"
1$
b00000000000000000000000000001000 '
b11111111011100011000001110010011 *
1+
b11111111011100011000001110010011 .
b00000000000000000000000000001000 /
b00000000110000000000000110010011 3
04
05
b00 8
b01 9
b01 :
1>
b00000000110000000000000110010011 @
0A
0C
b00 F
b01 G
b01 H
b00000000110000000000000110010011 M
b00000000110000000000000110010011 P
0R
0T
b00 W
b01 X
b01 Y
1\
b00000000110000000000000110010011 _
b0001 `
b1000 a
1b
0d
0g
b00 i
b01 k
b01 l
b00000000110000000000000110010011 n
b00000000000000000000000000001000 p
b11111111011100011000001110010011 s
b00000000000000000000000000010000 t
b00000000000000000000000000000100 v
b00000000000000000000000000001000 w
b00000000000000000000000000001100 {
b00000000000000000000000000001100 }
b00000000000000000000000000001100 "!
b00000000000000000000000000010000 #!
b00000000110000000000000110010011 %!
b00000000000000000000000000001100 '!
1)!
0*!
b11111111011100011000001110010011 +!
b00000000000000000000000000001000 ,!
b00000000000000000000000000000100 -!
b00000000110000000000000110010011 .!
10!
b11111111011100011000001110010011 3!
16!
b01100 9!
b00011 :!
1_!
b00 a!
b00000000000000000000000000010000 b!
b00000000000000000000000000001000 e!
1f!
b00000000000000000000000000001000 h!
b00000000000000000000000000000100 i!
b00000000000000000000000000001100 l!
b01 m!
b01 n!
b00000000000000000000000000001100 p!
1s!
0u!
b00000000000000000000000000001000 y!
b00000000000000000000000000001000 z!
1""
b00000000000000000000000000001000 $"
b11111111011100011000001110010011 '"
#150000
0"
0$
0+
0>
0\
0b
0)!
00!
06!
0_!
0f!
0s!
0""
#160000
1"
1$
1+
b10 9
1>
b10 G
b10 K
b10 N
b10 X
b10 Z
1\
b1000 `
b0111 a
1b
b10 k
b00000000000000000000000000001100 t
b00000000000000000000000000010000 u
b11111111111111111111111111111111 x
b00000000000000000000000000000000 |
b00000000000000000000000000000000 !!
b00000000000000000000000000001100 #!
1)!
10!
b11111111111111111111111111111111 4!
b11111111011100011000001110010011 5!
16!
b00000000000000000000000000010000 ;!
1_!
b00000000000000000000000000001100 b!
b11111111111111111111111111111111 c!
b00000000000000000000000000010000 d!
b00000000000000000000000000010000 e!
1f!
b10 m!
b00000000000000000000000000000000 o!
1s!
b00000000000000000000000000010000 v!
b00000000000000000000000000010000 w!
1""
#170000
0"
0$
0+
0>
0\
0b
0)!
00!
06!
0_!
0f!
0s!
0""
#180000
1"
1$
1+
16
b10 8
b00 9
b00 :
1>
1D
b10 F
b00 G
b00 H
b00 K
b00 N
1U
b10 W
b00 X
b00 Y
b00 Z
1\
b0111 `
b0000 a
1b
1h
b10 i
b00 k
b00 l
b00000000000000000000000000001000 t
b00000000000000000000000000001000 u
b00000000000000000000000000001000 |
b00000000000000000000000000000000 }
b00000000000000000000000000001000 !!
b00000000000000000000000000000000 "!
b00000000000000000000000000001000 #!
1)!
10!
16!
b00000000000000000000000000001000 ;!
1<!
1_!
b10 a!
b00000000000000000000000000001000 b!
b00000000000000000000000000001000 d!
b00000000000000000000000000001100 e!
1f!
b00 m!
b00 n!
b00000000000000000000000000001000 o!
b00000000000000000000000000000000 p!
1s!
b00000000000000000000000000001000 v!
b00000000000000000000000000001000 w!
1""
#190000
0"
0$
0+
0>
0\
0b
0)!
00!
06!
0_!
0f!
0s!
0""
#200000
1"
1$
1+
14
15
06
b10 :
1>
1A
1C
0D
b10 H
1R
1T
0U
b10 Y
1\
b0000 `
b0001 a
1b
1d
1g
0h
b10 l
b00000000000000000000000000001100 t
b00000000000000000000000000001100 u
b00000000000000000000000000000100 }
b00000000000000000000000000000100 "!
b00000000000000000000000000001100 #!
1)!
1*!
10!
16!
b00000000000000000000000000001100 ;!
0<!
b00000000000000000000000000001000 [!
1_!
b00000000000000000000000000001100 b!
b00000000000000000000000000001100 d!
b00000000000000000000000000001000 e!
1f!
b10 n!
b00000000000000000000000000000100 p!
1s!
1u!
b00000000000000000000000000001100 v!
b00000000000000000000000000001100 w!
1""
#210000
0"
0$
0+
0>
0\
0b
0)!
00!
06!
0_!
0f!
0s!
0""
#220000
1"
1$
b00000000000000000000000000001100 '
b00000000001000111110001000110011 *
1+
b00000000001000111110001000110011 .
b00000000000000000000000000001100 /
b11111111011100011000001110010011 3
04
05
b00 8
b01 9
b01 :
1>
b11111111011100011000001110010011 @
0A
0C
b00 F
b01 G
b01 H
b11111111011100011000001110010011 M
b11111111011100011000001110010011 P
0R
0T
b00 W
b01 X
b01 Y
1\
b11111111011100011000001110010011 _
b0001 `
b1000 a
1b
0d
0g
b00 i
b01 k
b01 l
b11111111011100011000001110010011 n
b00000000000000000000000000001100 p
b00000000001000111110001000110011 s
b11111111111111111111111111111111 t
b00000000000000000000000000001000 v
b00000000000000000000000000001100 w
b00000000000000000000000000001000 y
b11111111111111111111111111110111 {
b11111111111111111111111111110111 }
b11111111111111111111111111110111 "!
b11111111111111111111111111111111 #!
b11111111011100011000001110010011 %!
b11111111111111111111111111110111 '!
1)!
0*!
b00000000001000111110001000110011 +!
b00000000000000000000000000001100 ,!
b00000000000000000000000000001000 -!
b11111111011100011000001110010011 .!
10!
b00000000001000111110001000110011 3!
16!
b00011 8!
b10111 9!
b00111 :!
b00000000000000000000000000001000 =!
1_!
b00 a!
b11111111111111111111111111111111 b!
b00000000000000000000000000001100 e!
1f!
b00000000000000000000000000001100 h!
b00000000000000000000000000001000 i!
b00000000000000000000000000001000 j!
b11111111111111111111111111110111 l!
b01 m!
b01 n!
b11111111111111111111111111110111 p!
1s!
0u!
b00000000000000000000000000001100 y!
b00000000000000000000000000001100 z!
1""
b00000000000000000000000000001100 $"
b00000000001000111110001000110011 '"
#230000
0"
0$
0+
0>
0\
0b
0)!
00!
06!
0_!
0f!
0s!
0""
#240000
1"
1$
1+
b10 9
b0001 <
1>
b10 G
b0001 J
b10 K
b10 N
b0001 O
b10 X
b10 Z
1\
b1000 `
b0111 a
1b
b0001 j
b10 k
b00000000000000000000000000010001 t
b11111111111111111111111111111111 u
b00000000000000000000000000000000 x
b0001 ~
b00000000000000000000000000010001 #!
1)!
10!
b00000000000000000000000000000000 4!
b00000000001000111110001000110011 5!
16!
b11111111111111111111111111111111 ;!
1_!
b00000000000000000000000000010001 b!
b00000000000000000000000000000000 c!
b11111111111111111111111111111111 d!
b11111111111111111111111111111111 e!
1f!
b10 m!
b00000000000000000000000000001000 q!
1s!
b11111111111111111111111111111111 v!
b11111111111111111111111111111111 w!
1""
#250000
0"
0$
0+
0>
0\
0b
0)!
00!
06!
0_!
0f!
0s!
0""
#260000
1"
1$
1+
16
b10 8
b00 9
b00 :
b0000 <
1>
1D
b10 F
b00 G
b00 H
b0000 J
b00 K
b00 N
b0000 O
1U
b10 W
b00 X
b00 Y
b00 Z
1\
b0111 `
b0000 a
1b
1h
b10 i
b0000 j
b00 k
b00 l
b00000000000000000000000000001100 t
b00000000000000000000000000001100 u
b00000000000000000000000000001100 |
b00000000000000000000000000000000 }
b0000 ~
b00000000000000000000000000001100 !!
b00000000000000000000000000000000 "!
b00000000000000000000000000001100 #!
1)!
10!
16!
b00000000000000000000000000001100 ;!
1<!
1_!
b10 a!
b00000000000000000000000000001100 b!
b00000000000000000000000000001100 d!
b00000000000000000000000000010001 e!
1f!
b00 m!
b00 n!
b00000000000000000000000000001100 o!
b00000000000000000000000000000000 p!
1s!
b00000000000000000000000000001100 v!
b00000000000000000000000000001100 w!
1""
#270000
0"
0$
0+
0>
0\
0b
0)!
00!
06!
0_!
0f!
0s!
0""
#280000
1"
1$
1+
14
15
06
b10 :
1>
1A
1C
0D
b10 H
1R
1T
0U
b10 Y
1\
b0000 `
b0001 a
1b
1d
1g
0h
b10 l
b00000000000000000000000000010000 t
b00000000000000000000000000010000 u
b00000000000000000000000000000100 }
b00000000000000000000000000000100 "!
b00000000000000000000000000010000 #!
1)!
1*!
10!
16!
b00000000000000000000000000010000 ;!
0<!
b00000000000000000000000000001100 W!
1_!
b00000000000000000000000000010000 b!
b00000000000000000000000000010000 d!
b00000000000000000000000000001100 e!
1f!
b10 n!
b00000000000000000000000000000100 p!
1s!
1u!
b00000000000000000000000000010000 v!
b00000000000000000000000000010000 w!
1""
#290000
0"
0$
0+
0>
0\
0b
0)!
00!
06!
0_!
0f!
0s!
0""
#300000
1"
1$
b00000000000000000000000000010000 '
b0000 )
b00000000010000011111001010110011 *
1+
b00000000010000011111001010110011 .
b00000000000000000000000000010000 /
b0000 1
b00000000001000111110001000110011 3
04
05
b00 8
b01 9
b01 :
b111 ;
1>
b00000000001000111110001000110011 @
0A
0C
b00 F
b01 G
b01 H
b111 I
b00000000001000111110001000110011 M
b00000000001000111110001000110011 P
b111 Q
0R
0T
b00 W
b01 X
b01 Y
1\
b00000000001000111110001000110011 _
b0001 `
b0110 a
1b
0d
0g
b00 i
b01 k
b01 l
b111 m
b00000000001000111110001000110011 n
b00000000000000000000000000010000 p
b0000 r
b00000000010000011111001010110011 s
b00000000000000000000000000001100 t
b00000000000000000000000000001100 v
b00000000000000000000000000010000 w
b00000000000000000000000000001100 y
b00000000000000000000000000000100 z
b00000000000000000000000000000000 {
b00000000000000000000000000000000 }
b00000000000000000000000000000000 "!
b00000000000000000000000000001100 #!
b00000000001000111110001000110011 %!
b111 &!
b00000000000000000000000000000000 '!
1)!
0*!
b00000000010000011111001010110011 +!
b00000000000000000000000000010000 ,!
b00000000000000000000000000001100 -!
b00000000001000111110001000110011 .!
10!
b110 1!
b00000000010000011111001010110011 3!
16!
b00111 8!
b00010 9!
b00100 :!
b00000000000000000000000000001100 =!
b00000000000000000000000000000100 >!
1_!
b00 a!
b00000000000000000000000000001100 b!
b00000000000000000000000000010000 e!
1f!
b00000000000000000000000000010000 h!
b00000000000000000000000000001100 i!
b00000000000000000000000000001100 j!
b00000000000000000000000000000100 k!
b00000000000000000000000000000000 l!
b01 m!
b01 n!
b00000000000000000000000000000000 p!
1s!
0u!
b00000000000000000000000000010000 y!
b00000000000000000000000000010000 z!
b00000000000000000000000000000100 {!
b110 |!
b0000 !"
1""
b00000000000000000000000000010000 $"
b0000 &"
b00000000010000011111001010110011 '"
#310000
0"
0$
0+
0>
0\
0b
0)!
00!
06!
0_!
0f!
0s!
0""
#320000
1"
1$
1+
b10 9
b00 :
b0011 <
1>
b10 G
b00 H
b0011 J
b10 K
b10 N
b0011 O
b10 X
b00 Y
b10 Z
1\
b0110 `
b0111 a
1b
b0011 j
b10 k
b00 l
b00000000000000000000000000001100 u
b00000000000000000000000000000100 }
b0011 ~
b00000000000000000000000000000100 "!
1)!
10!
b00000000010000011111001010110011 5!
16!
b00000000000000000000000000001100 ;!
1_!
b00000000000000000000000000001100 d!
b00000000000000000000000000001100 e!
1f!
b10 m!
b00 n!
b00000000000000000000000000000100 p!
b00000000000000000000000000001100 q!
b00000000000000000000000000000100 r!
1s!
b00000000000000000000000000001100 v!
b00000000000000000000000000001100 w!
1""
#330000
0"
0$
0+
0>
0\
0b
0)!
00!
06!
0_!
0f!
0s!
0""
