Testbench/Maintest/dump.vcd
$version Generated by VerilatedVcd $end
$timescale 1ps $end
 $scope module $rootio $end
  $var wire 1 " clk $end
  $var wire 1 # reset $end
  $var wire 1 $ memWrite $end
  $var wire 32 % mem_rdata [31:0] $end
  $var wire 32 & mem_addr [31:0] $end
  $var wire 32 ' mem_wdata [31:0] $end
 $upscope $end
 $scope module rv32i_m $end
  $var wire 1 ( clk $end
  $var wire 1 ) reset $end
  $var wire 1 * memWrite $end
  $var wire 32 + mem_rdata [31:0] $end
  $var wire 32 , mem_addr [31:0] $end
  $var wire 32 - mem_wdata [31:0] $end
  $var wire 1 . zero $end
  $var wire 32 / instruction [31:0] $end
  $var wire 1 0 PCwrite $end
  $var wire 1 1 IRwrite $end
  $var wire 1 2 RegWrite $end
  $var wire 1 3 AdrSrc $end
  $var wire 2 4 ResultSrc [1:0] $end
  $var wire 2 5 ALUSrcA [1:0] $end
  $var wire 2 6 ALUSrcB [1:0] $end
  $var wire 3 7 ImmSrc [2:0] $end
  $var wire 4 8 ALUControl [3:0] $end
  $var wire 4 9 SdataSrc [3:0] $end
  $scope module controller $end
   $var wire 1 : clk $end
   $var wire 1 ; zero $end
   $var wire 32 < instruction [31:0] $end
   $var wire 1 = PCwrite $end
   $var wire 1 > MemWrite $end
   $var wire 1 ? IRwrite $end
   $var wire 1 @ RegWrite $end
   $var wire 1 A AdrSrc $end
   $var wire 2 B ResultSrc [1:0] $end
   $var wire 2 C ALUSrcA [1:0] $end
   $var wire 2 D ALUSrcB [1:0] $end
   $var wire 3 E ImmSrc [2:0] $end
   $var wire 4 F ALUControl [3:0] $end
   $var wire 2 G ALUop [1:0] $end
   $var wire 1 H branch $end
   $scope module aluC_Generator $end
    $var wire 32 I instruction [31:0] $end
    $var wire 2 J ALUOp [1:0] $end
    $var wire 4 K ALUControl [3:0] $end
   $upscope $end
   $scope module decoder $end
    $var wire 32 L instruction [31:0] $end
    $var wire 3 M ExtOp [2:0] $end
   $upscope $end
   $scope module fsm_inst $end
    $var wire 1 N PCWrite $end
    $var wire 1 O MemWrite $end
    $var wire 1 P IRWrite $end
    $var wire 1 Q RegWrite $end
    $var wire 1 R AdrSrc $end
    $var wire 2 S ResultSrc [1:0] $end
    $var wire 2 T ALUSrcA [1:0] $end
    $var wire 2 U ALUSrcB [1:0] $end
    $var wire 2 V ALUCop [1:0] $end
    $var wire 1 W branch $end
    $var wire 1 X clock $end
    $var wire 1 Y zero $end
    $var wire 32 Z instruction [31:0] $end
    $var wire 7 [ op [6:0] $end
    $var wire 4 l! FETCH [3:0] $end
    $var wire 4 m! DECODE [3:0] $end
    $var wire 4 n! MEM_ADR [3:0] $end
    $var wire 4 o! MEM_READ [3:0] $end
    $var wire 4 p! MEM_WRITEBACK [3:0] $end
    $var wire 4 q! MEM_WRITE [3:0] $end
    $var wire 4 r! EXECUTE_R [3:0] $end
    $var wire 4 s! ALU_WRITEBACK [3:0] $end
    $var wire 4 t! EXECUTE_I [3:0] $end
    $var wire 4 u! JAL [3:0] $end
    $var wire 4 v! BEQ [3:0] $end
    $var wire 4 w! IDLE [3:0] $end
    $var wire 4 \ state [3:0] $end
    $var wire 4 ] next_state [3:0] $end
   $upscope $end
  $upscope $end
  $scope module datapath $end
   $var wire 1 ^ clock $end
   $var wire 1 _ reset $end
   $var wire 1 ` PCWrite $end
   $var wire 1 a AdrSrc $end
   $var wire 1 b MemWrite $end
   $var wire 1 c IRWrite $end
   $var wire 1 d RegWrite $end
   $var wire 2 e ResultSrc [1:0] $end
   $var wire 4 f ALUControl [3:0] $end
   $var wire 4 g SdataSrc [3:0] $end
   $var wire 3 h ImmSrc [2:0] $end
   $var wire 32 i Instruction [31:0] $end
   $var wire 1 j Zero $end
   $var wire 32 k MemAddr [31:0] $end
   $var wire 32 l MemWriteData [31:0] $end
   $var wire 32 m MemReadData [31:0] $end
   $var wire 32 n ALUResult [31:0] $end
   $var wire 32 o Result [31:0] $end
   $var wire 32 p oldPC [31:0] $end
   $var wire 32 q PC [31:0] $end
   $var wire 32 r mdr_data [31:0] $end
   $var wire 32 s rd1 [31:0] $end
   $var wire 32 t rd2 [31:0] $end
   $var wire 32 u imm [31:0] $end
   $var wire 32 v ALUSrcA [31:0] $end
   $var wire 32 w ALUSrcB [31:0] $end
   $scope module alu $end
    $var wire 4 x ALUControl [3:0] $end
    $var wire 32 y A [31:0] $end
    $var wire 32 z B [31:0] $end
    $var wire 32 { ALUResult [31:0] $end
    $var wire 1 | Zero $end
   $upscope $end
   $scope module extender $end
    $var wire 32 } imm [31:0] $end
    $var wire 3 ~ ExtOp [2:0] $end
    $var wire 32 !! extImm [31:0] $end
   $upscope $end
   $scope module ir_mdr $end
    $var wire 1 "! reset $end
    $var wire 1 #! clock $end
    $var wire 1 $! IRWrite $end
    $var wire 32 %! instruction [31:0] $end
    $var wire 32 &! PC [31:0] $end
    $var wire 32 '! oldPC [31:0] $end
    $var wire 32 (! o_instruction [31:0] $end
    $var wire 32 )! Data [31:0] $end
    $var wire 32 *! o_Data [31:0] $end
   $upscope $end
   $scope module regFile $end
    $var wire 1 +! clock $end
    $var wire 5 ,! rs1_addr [4:0] $end
    $var wire 5 -! rs2_addr [4:0] $end
    $var wire 5 .! rd_addr [4:0] $end
    $var wire 32 /! writeData [31:0] $end
    $var wire 1 0! RegWrite $end
    $var wire 32 1! rs1_data [31:0] $end
    $var wire 32 2! rs2_data [31:0] $end
    $var wire 32 3! regFile[31] [31:0] $end
    $var wire 32 4! regFile[30] [31:0] $end
    $var wire 32 5! regFile[29] [31:0] $end
    $var wire 32 6! regFile[28] [31:0] $end
    $var wire 32 7! regFile[27] [31:0] $end
    $var wire 32 8! regFile[26] [31:0] $end
    $var wire 32 9! regFile[25] [31:0] $end
    $var wire 32 :! regFile[24] [31:0] $end
    $var wire 32 ;! regFile[23] [31:0] $end
    $var wire 32 <! regFile[22] [31:0] $end
    $var wire 32 =! regFile[21] [31:0] $end
    $var wire 32 >! regFile[20] [31:0] $end
    $var wire 32 ?! regFile[19] [31:0] $end
    $var wire 32 @! regFile[18] [31:0] $end
    $var wire 32 A! regFile[17] [31:0] $end
    $var wire 32 B! regFile[16] [31:0] $end
    $var wire 32 C! regFile[15] [31:0] $end
    $var wire 32 D! regFile[14] [31:0] $end
    $var wire 32 E! regFile[13] [31:0] $end
    $var wire 32 F! regFile[12] [31:0] $end
    $var wire 32 G! regFile[11] [31:0] $end
    $var wire 32 H! regFile[10] [31:0] $end
    $var wire 32 I! regFile[9] [31:0] $end
    $var wire 32 J! regFile[8] [31:0] $end
    $var wire 32 K! regFile[7] [31:0] $end
    $var wire 32 L! regFile[6] [31:0] $end
    $var wire 32 M! regFile[5] [31:0] $end
    $var wire 32 N! regFile[4] [31:0] $end
    $var wire 32 O! regFile[3] [31:0] $end
    $var wire 32 P! regFile[2] [31:0] $end
    $var wire 32 Q! regFile[1] [31:0] $end
    $var wire 32 R! regFile[0] [31:0] $end
   $upscope $end
   $scope module sResultSrc $end
    $var wire 1 S! clock $end
    $var wire 2 T! resultSrc [1:0] $end
    $var wire 32 U! ALUresult [31:0] $end
    $var wire 32 V! MemData [31:0] $end
    $var wire 32 W! Result [31:0] $end
    $var wire 32 X! ALUout [31:0] $end
   $upscope $end
   $scope module sdataSrc $end
    $var wire 1 Y! clock $end
    $var wire 32 Z! newPC [31:0] $end
    $var wire 32 [! oldPC [31:0] $end
    $var wire 32 \! rs1 [31:0] $end
    $var wire 32 ]! rs2 [31:0] $end
    $var wire 32 ^! imm [31:0] $end
    $var wire 2 _! SdataSrcA [1:0] $end
    $var wire 2 `! SdataSrcB [1:0] $end
    $var wire 32 a! writeData [31:0] $end
    $var wire 32 b! ALUsrcA [31:0] $end
    $var wire 32 c! ALUsrcB [31:0] $end
    $var wire 32 d! Data1 [31:0] $end
   $upscope $end
   $scope module spcSrc $end
    $var wire 1 e! clk $end
    $var wire 1 f! PCWrite $end
    $var wire 32 g! newPC [31:0] $end
    $var wire 32 h! Result [31:0] $end
    $var wire 1 i! Select $end
    $var wire 32 j! PC [31:0] $end
    $var wire 32 k! MemAddr [31:0] $end
   $upscope $end
  $upscope $end
 $upscope $end
$enddefinitions $end


#0
1"
1#
0$
b00000000000000000000000000000000 %
b00000000000000000000000000000000 &
b00000000000000000000000000000000 '
1(
1)
0*
b00000000000000000000000000000000 +
b00000000000000000000000000000000 ,
b00000000000000000000000000000000 -
1.
b00000000000000000000000000000000 /
00
01
02
03
b00 4
b01 5
b01 6
b111 7
b0000 8
b0000 9
1:
1;
b00000000000000000000000000000000 <
0=
0>
0?
0@
0A
b00 B
b01 C
b01 D
b111 E
b0000 F
b00 G
0H
b00000000000000000000000000000000 I
b00 J
b0000 K
b00000000000000000000000000000000 L
b111 M
0N
0O
0P
0Q
0R
b00 S
b01 T
b01 U
b00 V
0W
1X
1Y
b00000000000000000000000000000000 Z
b0000000 [
b0001 \
b0000 ]
1^
1_
0`
0a
0b
0c
0d
b00 e
b0000 f
b0000 g
b111 h
b00000000000000000000000000000000 i
1j
b00000000000000000000000000000000 k
b00000000000000000000000000000000 l
b00000000000000000000000000000000 m
b00000000000000000000000000000000 n
b00000000000000000000000000000000 o
b00000000000000000000000000000000 p
b00000000000000000000000000000000 q
b00000000000000000000000000000000 r
b00000000000000000000000000000000 s
b00000000000000000000000000000000 t
b00000000000000000000000000000000 u
b00000000000000000000000000000000 v
b00000000000000000000000000000000 w
b0000 x
b00000000000000000000000000000000 y
b00000000000000000000000000000000 z
b00000000000000000000000000000000 {
1|
b00000000000000000000000000000000 }
b111 ~
b00000000000000000000000000000000 !!
1"!
1#!
0$!
b00000000000000000000000000000000 %!
b00000000000000000000000000000000 &!
b00000000000000000000000000000000 '!
b00000000000000000000000000000000 (!
b00000000000000000000000000000000 )!
b00000000000000000000000000000000 *!
1+!
b00000 ,!
b00000 -!
b00000 .!
b00000000000000000000000000000000 /!
00!
b00000000000000000000000000000000 1!
b00000000000000000000000000000000 2!
b00000000000000000000000000000000 3!
b00000000000000000000000000000000 4!
b00000000000000000000000000000000 5!
b00000000000000000000000000000000 6!
b00000000000000000000000000000000 7!
b00000000000000000000000000000000 8!
b00000000000000000000000000000000 9!
b00000000000000000000000000000000 :!
b00000000000000000000000000000000 ;!
b00000000000000000000000000000000 <!
b00000000000000000000000000000000 =!
b00000000000000000000000000000000 >!
b00000000000000000000000000000000 ?!
b00000000000000000000000000000000 @!
b00000000000000000000000000000000 A!
b00000000000000000000000000000000 B!
b00000000000000000000000000000000 C!
b00000000000000000000000000000000 D!
b00000000000000000000000000000000 E!
b00000000000000000000000000000000 F!
b00000000000000000000000000000000 G!
b00000000000000000000000000000000 H!
b00000000000000000000000000000000 I!
b00000000000000000000000000000000 J!
b00000000000000000000000000000000 K!
b00000000000000000000000000000000 L!
b00000000000000000000000000000000 M!
b00000000000000000000000000000000 N!
b00000000000000000000000000000000 O!
b00000000000000000000000000000000 P!
b00000000000000000000000000000000 Q!
b00000000000000000000000000000000 R!
1S!
b00 T!
b00000000000000000000000000000000 U!
b00000000000000000000000000000000 V!
b00000000000000000000000000000000 W!
b00000000000000000000000000000000 X!
1Y!
b00000000000000000000000000000000 Z!
b00000000000000000000000000000000 [!
b00000000000000000000000000000000 \!
b00000000000000000000000000000000 ]!
b00000000000000000000000000000000 ^!
b00 _!
b00 `!
b00000000000000000000000000000000 a!
b00000000000000000000000000000000 b!
b00000000000000000000000000000000 c!
b00000000000000000000000000000000 d!
1e!
0f!
b00000000000000000000000000000000 g!
b00000000000000000000000000000000 h!
0i!
b00000000000000000000000000000000 j!
b00000000000000000000000000000000 k!
b0000 l!
b0001 m!
b0010 n!
b0011 o!
b0100 p!
b0101 q!
b0110 r!
b0111 s!
b1000 t!
b1001 u!
b1010 v!
b1111 w!
#5000
0"
0(
0:
0X
0^
0#!
0+!
0S!
0Y!
0e!
#10000
1"
0#
1(
0)
10
11
b10 4
b00 5
b10 6
1:
1=
1?
b10 B
b00 C
b10 D
1N
1P
b10 S
b00 T
b10 U
1X
b0000 \
b0001 ]
1^
0_
1`
1c
b10 e
0"!
1#!
1$!
1+!
1S!
b10 T!
1Y!
1e!
1f!
#15000
0"
0(
0:
0X
0^
0#!
0+!
0S!
0Y!
0e!
#20000
1"
1(
00
01
b00 4
b01 5
b01 6
1:
0=
0?
b00 B
b01 C
b01 D
0N
0P
b00 S
b01 T
b01 U
1X
b0001 \
b0000 ]
1^
0`
0c
b00 e
1#!
0$!
1+!
1S!
b00 T!
1Y!
1e!
0f!
#25000
0"
0(
0:
0X
0^
0#!
0+!
0S!
0Y!
0e!
#30000
1"
1(
10
11
b10 4
b00 5
b10 6
1:
1=
1?
b10 B
b00 C
b10 D
1N
1P
b10 S
b00 T
b10 U
1X
b0000 \
b0001 ]
1^
1`
1c
b10 e
1#!
1$!
1+!
1S!
b10 T!
1Y!
1e!
1f!
#31000
b00000000010100000000000100010011 %
b00000000010100000000000100010011 +
b00000000010100000000000100010011 m
b00000000010100000000000100010011 %!
b00000000010100000000000100010011 )!
#35000
0"
0(
0:
0X
0^
0#!
0+!
0S!
0Y!
0e!
#40000
1"
1(
b00000000010100000000000100010011 /
00
01
b00 4
b01 5
b01 6
b000 7
1:
b00000000010100000000000100010011 <
0=
0?
b00 B
b01 C
b01 D
b000 E
b00000000010100000000000100010011 I
b00000000010100000000000100010011 L
b000 M
0N
0P
b00 S
b01 T
b01 U
1X
b00000000010100000000000100010011 Z
b0010011 [
b0001 \
b1000 ]
1^
0`
0c
b00 e
b000 h
b00000000010100000000000100010011 i
b00000000010100000000000100010011 r
b00000000000000000000000000000101 u
b00000000010100000000000100010011 }
b000 ~
b00000000000000000000000000000101 !!
1#!
0$!
b00000000010100000000000100010011 (!
b00000000010100000000000100010011 *!
1+!
b00101 -!
b00010 .!
1S!
b00 T!
b00000000010100000000000100010011 V!
1Y!
b00000000000000000000000000000101 ^!
1e!
0f!
#45000
0"
0(
0:
0X
0^
0#!
0+!
0S!
0Y!
0e!
#50000
1"
1(
b10 5
1:
b10 C
b10 G
b10 J
b10 T
b10 V
1X
b1000 \
b0111 ]
1^
1#!
1+!
1S!
1Y!
1e!
#55000
0"
0(
0:
0X
0^
0#!
0+!
0S!
0Y!
0e!
#60000
1"
1(
12
b10 4
b00 5
b00 6
1:
1@
b10 B
b00 C
b00 D
b00 G
b00 J
1Q
b10 S
b00 T
b00 U
b00 V
1X
b0111 \
b0000 ]
1^
1d
b10 e
1#!
1+!
10!
1S!
b10 T!
1Y!
1e!
#65000
0"
0(
0:
0X
0^
0#!
0+!
0S!
0Y!
0e!
#70000
1"
1(
10
11
02
b10 6
1:
1=
1?
0@
b10 D
1N
1P
0Q
b10 U
1X
b0000 \
b0001 ]
1^
1`
1c
0d
1#!
1$!
1+!
00!
1S!
1Y!
1e!
1f!
#75000
0"
0(
0:
0X
0^
0#!
0+!
0S!
0Y!
0e!
#80000
1"
1(
00
01
b00 4
b01 5
b01 6
1:
0=
0?
b00 B
b01 C
b01 D
0N
0P
b00 S
b01 T
b01 U
1X
b0001 \
b1000 ]
1^
0`
0c
b00 e
1#!
0$!
1+!
1S!
b00 T!
1Y!
1e!
0f!
#85000
0"
0(
0:
0X
0^
0#!
0+!
0S!
0Y!
0e!
#90000
1"
1(
b10 5
1:
b10 C
b10 G
b10 J
b10 T
b10 V
1X
b1000 \
b0111 ]
1^
1#!
1+!
1S!
1Y!
1e!
#95000
0"
0(
0:
0X
0^
0#!
0+!
0S!
0Y!
0e!
#100000
1"
1(
12
b10 4
b00 5
b00 6
1:
1@
b10 B
b00 C
b00 D
b00 G
b00 J
1Q
b10 S
b00 T
b00 U
b00 V
1X
b0111 \
b0000 ]
1^
1d
b10 e
1#!
1+!
10!
1S!
b10 T!
1Y!
1e!
#105000
0"
0(
0:
0X
0^
0#!
0+!
0S!
0Y!
0e!
#110000
1"
1(
10
11
02
b10 6
1:
1=
1?
0@
b10 D
1N
1P
0Q
b10 U
1X
b0000 \
b0001 ]
1^
1`
1c
0d
1#!
1$!
1+!
00!
1S!
1Y!
1e!
1f!
#115000
0"
0(
0:
0X
0^
0#!
0+!
0S!
0Y!
0e!
#120000
1"
1(
00
01
b00 4
b01 5
b01 6
1:
0=
0?
b00 B
b01 C
b01 D
0N
0P
b00 S
b01 T
b01 U
1X
b0001 \
b1000 ]
1^
0`
0c
b00 e
1#!
0$!
1+!
1S!
b00 T!
1Y!
1e!
0f!
#125000
0"
0(
0:
0X
0^
0#!
0+!
0S!
0Y!
0e!
#130000
1"
1(
b10 5
1:
b10 C
b10 G
b10 J
b10 T
b10 V
1X
b1000 \
b0111 ]
1^
1#!
1+!
1S!
1Y!
1e!
#135000
0"
0(
0:
0X
0^
0#!
0+!
0S!
0Y!
0e!
#140000
1"
1(
12
b10 4
b00 5
b00 6
1:
1@
b10 B
b00 C
b00 D
b00 G
b00 J
1Q
b10 S
b00 T
b00 U
b00 V
1X
b0111 \
b0000 ]
1^
1d
b10 e
1#!
1+!
10!
1S!
b10 T!
1Y!
1e!
#145000
0"
0(
0:
0X
0^
0#!
0+!
0S!
0Y!
0e!
#150000
1"
1(
10
11
02
b10 6
1:
1=
1?
0@
b10 D
1N
1P
0Q
b10 U
1X
b0000 \
b0001 ]
1^
1`
1c
0d
1#!
1$!
1+!
00!
1S!
1Y!
1e!
1f!
#155000
0"
0(
0:
0X
0^
0#!
0+!
0S!
0Y!
0e!
#160000
1"
1(
00
01
b00 4
b01 5
b01 6
1:
0=
0?
b00 B
b01 C
b01 D
0N
0P
b00 S
b01 T
b01 U
1X
b0001 \
b1000 ]
1^
0`
0c
b00 e
1#!
0$!
1+!
1S!
b00 T!
1Y!
1e!
0f!
#165000
0"
0(
0:
0X
0^
0#!
0+!
0S!
0Y!
0e!
#170000
1"
1(
b10 5
1:
b10 C
b10 G
b10 J
b10 T
b10 V
1X
b1000 \
b0111 ]
1^
1#!
1+!
1S!
1Y!
1e!
#175000
0"
0(
0:
0X
0^
0#!
0+!
0S!
0Y!
0e!
#180000
1"
1(
12
b10 4
b00 5
b00 6
1:
1@
b10 B
b00 C
b00 D
b00 G
b00 J
1Q
b10 S
b00 T
b00 U
b00 V
1X
b0111 \
b0000 ]
1^
1d
b10 e
1#!
1+!
10!
1S!
b10 T!
1Y!
1e!
#185000
0"
0(
0:
0X
0^
0#!
0+!
0S!
0Y!
0e!
#190000
1"
1(
10
11
02
b10 6
1:
1=
1?
0@
b10 D
1N
1P
0Q
b10 U
1X
b0000 \
b0001 ]
1^
1`
1c
0d
1#!
1$!
1+!
00!
1S!
1Y!
1e!
1f!
#195000
0"
0(
0:
0X
0^
0#!
0+!
0S!
0Y!
0e!
#200000
1"
1(
00
01
b00 4
b01 5
b01 6
1:
0=
0?
b00 B
b01 C
b01 D
0N
0P
b00 S
b01 T
b01 U
1X
b0001 \
b1000 ]
1^
0`
0c
b00 e
1#!
0$!
1+!
1S!
b00 T!
1Y!
1e!
0f!
#205000
0"
0(
0:
0X
0^
0#!
0+!
0S!
0Y!
0e!
#210000
1"
1(
b10 5
1:
b10 C
b10 G
b10 J
b10 T
b10 V
1X
b1000 \
b0111 ]
1^
1#!
1+!
1S!
1Y!
1e!
#215000
0"
0(
0:
0X
0^
0#!
0+!
0S!
0Y!
0e!
#220000
1"
1(
12
b10 4
b00 5
b00 6
1:
1@
b10 B
b00 C
b00 D
b00 G
b00 J
1Q
b10 S
b00 T
b00 U
b00 V
1X
b0111 \
b0000 ]
1^
1d
b10 e
1#!
1+!
10!
1S!
b10 T!
1Y!
1e!
#225000
0"
0(
0:
0X
0^
0#!
0+!
0S!
0Y!
0e!
#230000
1"
1(
10
11
02
b10 6
1:
1=
1?
0@
b10 D
1N
1P
0Q
b10 U
1X
b0000 \
b0001 ]
1^
1`
1c
0d
1#!
1$!
1+!
00!
1S!
1Y!
1e!
1f!
#235000
0"
0(
0:
0X
0^
0#!
0+!
0S!
0Y!
0e!
#240000
1"
1(
00
01
b00 4
b01 5
b01 6
1:
0=
0?
b00 B
b01 C
b01 D
0N
0P
b00 S
b01 T
b01 U
1X
b0001 \
b1000 ]
1^
0`
0c
b00 e
1#!
0$!
1+!
1S!
b00 T!
1Y!
1e!
0f!
#245000
0"
0(
0:
0X
0^
0#!
0+!
0S!
0Y!
0e!
#250000
1"
1(
b10 5
1:
b10 C
b10 G
b10 J
b10 T
b10 V
1X
b1000 \
b0111 ]
1^
1#!
1+!
1S!
1Y!
1e!
#255000
0"
0(
0:
0X
0^
0#!
0+!
0S!
0Y!
0e!
#260000
1"
1(
12
b10 4
b00 5
b00 6
1:
1@
b10 B
b00 C
b00 D
b00 G
b00 J
1Q
b10 S
b00 T
b00 U
b00 V
1X
b0111 \
b0000 ]
1^
1d
b10 e
1#!
1+!
10!
1S!
b10 T!
1Y!
1e!
#265000
0"
0(
0:
0X
0^
0#!
0+!
0S!
0Y!
0e!
#270000
1"
1(
10
11
02
b10 6
1:
1=
1?
0@
b10 D
1N
1P
0Q
b10 U
1X
b0000 \
b0001 ]
1^
1`
1c
0d
1#!
1$!
1+!
00!
1S!
1Y!
1e!
1f!
#275000
0"
0(
0:
0X
0^
0#!
0+!
0S!
0Y!
0e!
#280000
1"
1(
00
01
b00 4
b01 5
b01 6
1:
0=
0?
b00 B
b01 C
b01 D
0N
0P
b00 S
b01 T
b01 U
1X
b0001 \
b1000 ]
1^
0`
0c
b00 e
1#!
0$!
1+!
1S!
b00 T!
1Y!
1e!
0f!
#285000
0"
0(
0:
0X
0^
0#!
0+!
0S!
0Y!
0e!
#290000
1"
1(
b10 5
1:
b10 C
b10 G
b10 J
b10 T
b10 V
1X
b1000 \
b0111 ]
1^
1#!
1+!
1S!
1Y!
1e!
#295000
0"
0(
0:
0X
0^
0#!
0+!
0S!
0Y!
0e!
#300000
1"
1(
12
b10 4
b00 5
b00 6
1:
1@
b10 B
b00 C
b00 D
b00 G
b00 J
1Q
b10 S
b00 T
b00 U
b00 V
1X
b0111 \
b0000 ]
1^
1d
b10 e
1#!
1+!
10!
1S!
b10 T!
1Y!
1e!
#305000
0"
0(
0:
0X
0^
0#!
0+!
0S!
0Y!
0e!
#310000
1"
1(
10
11
02
b10 6
1:
1=
1?
0@
b10 D
1N
1P
0Q
b10 U
1X
b0000 \
b0001 ]
1^
1`
1c
0d
1#!
1$!
1+!
00!
1S!
1Y!
1e!
1f!
#315000
0"
0(
0:
0X
0^
0#!
0+!
0S!
0Y!
0e!
#320000
1"
1(
00
01
b00 4
b01 5
b01 6
1:
0=
0?
b00 B
b01 C
b01 D
0N
0P
b00 S
b01 T
b01 U
1X
b0001 \
b1000 ]
1^
0`
0c
b00 e
1#!
0$!
1+!
1S!
b00 T!
1Y!
1e!
0f!
#325000
0"
0(
0:
0X
0^
0#!
0+!
0S!
0Y!
0e!
#330000
1"
1(
b10 5
1:
b10 C
b10 G
b10 J
b10 T
b10 V
1X
b1000 \
b0111 ]
1^
1#!
1+!
1S!
1Y!
1e!
#335000
0"
0(
0:
0X
0^
0#!
0+!
0S!
0Y!
0e!
#340000
1"
1(
12
b10 4
b00 5
b00 6
1:
1@
b10 B
b00 C
b00 D
b00 G
b00 J
1Q
b10 S
b00 T
b00 U
b00 V
1X
b0111 \
b0000 ]
1^
1d
b10 e
1#!
1+!
10!
1S!
b10 T!
1Y!
1e!
#345000
0"
0(
0:
0X
0^
0#!
0+!
0S!
0Y!
0e!
#350000
1"
1(
10
11
02
b10 6
1:
1=
1?
0@
b10 D
1N
1P
0Q
b10 U
1X
b0000 \
b0001 ]
1^
1`
1c
0d
1#!
1$!
1+!
00!
1S!
1Y!
1e!
1f!
#355000
0"
0(
0:
0X
0^
0#!
0+!
0S!
0Y!
0e!
#360000
1"
1(
00
01
b00 4
b01 5
b01 6
1:
0=
0?
b00 B
b01 C
b01 D
0N
0P
b00 S
b01 T
b01 U
1X
b0001 \
b1000 ]
1^
0`
0c
b00 e
1#!
0$!
1+!
1S!
b00 T!
1Y!
1e!
0f!
#365000
0"
0(
0:
0X
0^
0#!
0+!
0S!
0Y!
0e!
#370000
1"
1(
b10 5
1:
b10 C
b10 G
b10 J
b10 T
b10 V
1X
b1000 \
b0111 ]
1^
1#!
1+!
1S!
1Y!
1e!
#375000
0"
0(
0:
0X
0^
0#!
0+!
0S!
0Y!
0e!
#380000
1"
1(
12
b10 4
b00 5
b00 6
1:
1@
b10 B
b00 C
b00 D
b00 G
b00 J
1Q
b10 S
b00 T
b00 U
b00 V
1X
b0111 \
b0000 ]
1^
1d
b10 e
1#!
1+!
10!
1S!
b10 T!
1Y!
1e!
#385000
0"
0(
0:
0X
0^
0#!
0+!
0S!
0Y!
0e!
#390000
1"
1(
10
11
02
b10 6
1:
1=
1?
0@
b10 D
1N
1P
0Q
b10 U
1X
b0000 \
b0001 ]
1^
1`
1c
0d
1#!
1$!
1+!
00!
1S!
1Y!
1e!
1f!
#395000
0"
0(
0:
0X
0^
0#!
0+!
0S!
0Y!
0e!
#400000
1"
1(
00
01
b00 4
b01 5
b01 6
1:
0=
0?
b00 B
b01 C
b01 D
0N
0P
b00 S
b01 T
b01 U
1X
b0001 \
b1000 ]
1^
0`
0c
b00 e
1#!
0$!
1+!
1S!
b00 T!
1Y!
1e!
0f!
#405000
0"
0(
0:
0X
0^
0#!
0+!
0S!
0Y!
0e!
#410000
1"
1(
b10 5
1:
b10 C
b10 G
b10 J
b10 T
b10 V
1X
b1000 \
b0111 ]
1^
1#!
1+!
1S!
1Y!
1e!
#415000
0"
0(
0:
0X
0^
0#!
0+!
0S!
0Y!
0e!
#420000
1"
1(
12
b10 4
b00 5
b00 6
1:
1@
b10 B
b00 C
b00 D
b00 G
b00 J
1Q
b10 S
b00 T
b00 U
b00 V
1X
b0111 \
b0000 ]
1^
1d
b10 e
1#!
1+!
10!
1S!
b10 T!
1Y!
1e!
#425000
0"
0(
0:
0X
0^
0#!
0+!
0S!
0Y!
0e!
#430000
1"
1(
10
11
02
b10 6
1:
1=
1?
0@
b10 D
1N
1P
0Q
b10 U
1X
b0000 \
b0001 ]
1^
1`
1c
0d
1#!
1$!
1+!
00!
1S!
1Y!
1e!
1f!
#435000
0"
0(
0:
0X
0^
0#!
0+!
0S!
0Y!
0e!
#440000
1"
1(
00
01
b00 4
b01 5
b01 6
1:
0=
0?
b00 B
b01 C
b01 D
0N
0P
b00 S
b01 T
b01 U
1X
b0001 \
b1000 ]
1^
0`
0c
b00 e
1#!
0$!
1+!
1S!
b00 T!
1Y!
1e!
0f!
#445000
0"
0(
0:
0X
0^
0#!
0+!
0S!
0Y!
0e!
#450000
1"
1(
b10 5
1:
b10 C
b10 G
b10 J
b10 T
b10 V
1X
b1000 \
b0111 ]
1^
1#!
1+!
1S!
1Y!
1e!
#455000
0"
0(
0:
0X
0^
0#!
0+!
0S!
0Y!
0e!
#460000
1"
1(
12
b10 4
b00 5
b00 6
1:
1@
b10 B
b00 C
b00 D
b00 G
b00 J
1Q
b10 S
b00 T
b00 U
b00 V
1X
b0111 \
b0000 ]
1^
1d
b10 e
1#!
1+!
10!
1S!
b10 T!
1Y!
1e!
#465000
0"
0(
0:
0X
0^
0#!
0+!
0S!
0Y!
0e!
#470000
1"
1(
10
11
02
b10 6
1:
1=
1?
0@
b10 D
1N
1P
0Q
b10 U
1X
b0000 \
b0001 ]
1^
1`
1c
0d
1#!
1$!
1+!
00!
1S!
1Y!
1e!
1f!
#475000
0"
0(
0:
0X
0^
0#!
0+!
0S!
0Y!
0e!
#480000
1"
1(
00
01
b00 4
b01 5
b01 6
1:
0=
0?
b00 B
b01 C
b01 D
0N
0P
b00 S
b01 T
b01 U
1X
b0001 \
b1000 ]
1^
0`
0c
b00 e
1#!
0$!
1+!
1S!
b00 T!
1Y!
1e!
0f!
#485000
0"
0(
0:
0X
0^
0#!
0+!
0S!
0Y!
0e!
#490000
1"
1(
b10 5
1:
b10 C
b10 G
b10 J
b10 T
b10 V
1X
b1000 \
b0111 ]
1^
1#!
1+!
1S!
1Y!
1e!
#495000
0"
0(
0:
0X
0^
0#!
0+!
0S!
0Y!
0e!
#500000
1"
1(
12
b10 4
b00 5
b00 6
1:
1@
b10 B
b00 C
b00 D
b00 G
b00 J
1Q
b10 S
b00 T
b00 U
b00 V
1X
b0111 \
b0000 ]
1^
1d
b10 e
1#!
1+!
10!
1S!
b10 T!
1Y!
1e!
#505000
0"
0(
0:
0X
0^
0#!
0+!
0S!
0Y!
0e!
#510000
1"
1(
10
11
02
b10 6
1:
1=
1?
0@
b10 D
1N
1P
0Q
b10 U
1X
b0000 \
b0001 ]
1^
1`
1c
0d
1#!
1$!
1+!
00!
1S!
1Y!
1e!
1f!
#515000
0"
0(
0:
0X
0^
0#!
0+!
0S!
0Y!
0e!
#520000
1"
1(
00
01
b00 4
b01 5
b01 6
1:
0=
0?
b00 B
b01 C
b01 D
0N
0P
b00 S
b01 T
b01 U
1X
b0001 \
b1000 ]
1^
0`
0c
b00 e
1#!
0$!
1+!
1S!
b00 T!
1Y!
1e!
0f!
#525000
0"
0(
0:
0X
0^
0#!
0+!
0S!
0Y!
0e!
#530000
1"
1(
b10 5
1:
b10 C
b10 G
b10 J
b10 T
b10 V
1X
b1000 \
b0111 ]
1^
1#!
1+!
1S!
1Y!
1e!
#535000
0"
0(
0:
0X
0^
0#!
0+!
0S!
0Y!
0e!
#540000
1"
1(
12
b10 4
b00 5
b00 6
1:
1@
b10 B
b00 C
b00 D
b00 G
b00 J
1Q
b10 S
b00 T
b00 U
b00 V
1X
b0111 \
b0000 ]
1^
1d
b10 e
1#!
1+!
10!
1S!
b10 T!
1Y!
1e!
#545000
0"
0(
0:
0X
0^
0#!
0+!
0S!
0Y!
0e!
